Suite/Test/Step Name,Browser,Description,Tag,Start time,End time,Duration,Status
TestSuiteExcel,Chrome 74.0.3729.131,,,2019-05-14 15:08:10,2019-05-14 15:12:32,4m - 21.637s,PASSED
,,,,,,,
Test Cases/test_katalon5,Chrome 74.0.3729.131,,,2019-05-14 15:08:11,2019-05-14 15:10:35,2m - 24.384s,PASSED
Start listener action : sampleBeforeTestCase,Chrome 74.0.3729.131,,,2019-05-14 15:08:11,2019-05-14 15:08:11,0.001s,PASSED
"openBrowser("""")",Chrome 74.0.3729.131,,,2019-05-14 15:08:11,2019-05-14 15:09:24,1m - 13.157s,PASSED
"navigateToUrl(""https://katalon-demo-cura.herokuapp.com/"")",Chrome 74.0.3729.131,,,2019-05-14 15:09:24,2019-05-14 15:09:57,32.658s,PASSED
"click(findTestObject(""Object Repository/Page_CURA Healthcare Service/a_Make Appointment""))",Chrome 74.0.3729.131,,,2019-05-14 15:09:57,2019-05-14 15:10:22,25.279s,PASSED
"setText(findTestObject(""Object Repository/Page_CURA Healthcare Service/input_Username_username""), user)",Chrome 74.0.3729.131,,,2019-05-14 15:10:22,2019-05-14 15:10:30,7.343s,PASSED
"setText(findTestObject(""Page_CURA Healthcare Service/input_Password_password""), password)",Chrome 74.0.3729.131,,,2019-05-14 15:10:30,2019-05-14 15:10:30,0.473s,PASSED
"click(findTestObject(""Object Repository/Page_CURA Healthcare Service/button_Login""))",Chrome 74.0.3729.131,,,2019-05-14 15:10:30,2019-05-14 15:10:33,3.039s,PASSED
"verifyElementPresent(findTestObject(""Page_CURA Healthcare Service/Page_CURA Healthcare Service/h2_Make Appointment""), 0, OPTIONAL)",Chrome 74.0.3729.131,,,2019-05-14 15:10:33,2019-05-14 15:10:34,0.383s,PASSED
closeBrowser(),Chrome 74.0.3729.131,,,2019-05-14 15:10:34,2019-05-14 15:10:35,1.695s,PASSED
Start listener action : sampleAfterTestCase,Chrome 74.0.3729.131,,,2019-05-14 15:10:35,2019-05-14 15:10:35,0.000s,PASSED
,,,,,,,
Test Cases/test_katalon5,Chrome 74.0.3729.131,,,2019-05-14 15:10:36,2019-05-14 15:11:30,53.838s,PASSED
Start listener action : sampleBeforeTestCase,Chrome 74.0.3729.131,,,2019-05-14 15:10:36,2019-05-14 15:10:36,0.000s,PASSED
"openBrowser("""")",Chrome 74.0.3729.131,,,2019-05-14 15:10:36,2019-05-14 15:10:49,12.793s,PASSED
"navigateToUrl(""https://katalon-demo-cura.herokuapp.com/"")",Chrome 74.0.3729.131,,,2019-05-14 15:10:49,2019-05-14 15:10:53,3.974s,PASSED
"click(findTestObject(""Object Repository/Page_CURA Healthcare Service/a_Make Appointment""))",Chrome 74.0.3729.131,,,2019-05-14 15:10:53,2019-05-14 15:10:54,1.068s,PASSED
"setText(findTestObject(""Object Repository/Page_CURA Healthcare Service/input_Username_username""), user)",Chrome 74.0.3729.131,,,2019-05-14 15:10:54,2019-05-14 15:10:54,0.240s,PASSED
"setText(findTestObject(""Page_CURA Healthcare Service/input_Password_password""), password)",Chrome 74.0.3729.131,,,2019-05-14 15:10:54,2019-05-14 15:10:54,0.369s,PASSED
"click(findTestObject(""Object Repository/Page_CURA Healthcare Service/button_Login""))",Chrome 74.0.3729.131,,,2019-05-14 15:10:54,2019-05-14 15:10:55,0.715s,PASSED
"verifyElementPresent(findTestObject(""Page_CURA Healthcare Service/Page_CURA Healthcare Service/h2_Make Appointment""), 0, OPTIONAL)",Chrome 74.0.3729.131,,,2019-05-14 15:10:55,2019-05-14 15:11:28,32.849s,PASSED
closeBrowser(),Chrome 74.0.3729.131,,,2019-05-14 15:11:28,2019-05-14 15:11:30,1.668s,PASSED
Start listener action : sampleAfterTestCase,Chrome 74.0.3729.131,,,2019-05-14 15:11:30,2019-05-14 15:11:30,0.001s,PASSED
,,,,,,,
Test Cases/test_katalon5,Chrome 74.0.3729.131,,,2019-05-14 15:11:30,2019-05-14 15:12:31,1m - 1.000s,PASSED
Start listener action : sampleBeforeTestCase,Chrome 74.0.3729.131,,,2019-05-14 15:11:30,2019-05-14 15:11:30,0.001s,PASSED
"openBrowser("""")",Chrome 74.0.3729.131,,,2019-05-14 15:11:32,2019-05-14 15:11:44,12.075s,PASSED
"navigateToUrl(""https://katalon-demo-cura.herokuapp.com/"")",Chrome 74.0.3729.131,,,2019-05-14 15:11:44,2019-05-14 15:11:50,5.743s,PASSED
"click(findTestObject(""Object Repository/Page_CURA Healthcare Service/a_Make Appointment""))",Chrome 74.0.3729.131,,,2019-05-14 15:11:50,2019-05-14 15:11:50,0.840s,PASSED
"setText(findTestObject(""Object Repository/Page_CURA Healthcare Service/input_Username_username""), user)",Chrome 74.0.3729.131,,,2019-05-14 15:11:50,2019-05-14 15:11:52,1.687s,PASSED
"setText(findTestObject(""Page_CURA Healthcare Service/input_Password_password""), password)",Chrome 74.0.3729.131,,,2019-05-14 15:11:52,2019-05-14 15:11:56,4.232s,PASSED
"click(findTestObject(""Object Repository/Page_CURA Healthcare Service/button_Login""))",Chrome 74.0.3729.131,,,2019-05-14 15:11:56,2019-05-14 15:11:58,1.599s,PASSED
"verifyElementPresent(findTestObject(""Page_CURA Healthcare Service/Page_CURA Healthcare Service/h2_Make Appointment""), 0, OPTIONAL)",Chrome 74.0.3729.131,,,2019-05-14 15:11:58,2019-05-14 15:12:30,31.929s,PASSED
closeBrowser(),Chrome 74.0.3729.131,,,2019-05-14 15:12:30,2019-05-14 15:12:31,0.802s,PASSED
Start listener action : sampleAfterTestCase,Chrome 74.0.3729.131,,,2019-05-14 15:12:31,2019-05-14 15:12:31,0.001s,PASSED
